{
  "version": "15.1.0",
  "vulnerabilities": [
    {
      "id": "6838251cd3f1b5c709744fb6cce226c895497909b70c89e3cddfb6d60bffb193",
      "category": "sast",
      "name": "Use of a Broken or Risky Cryptographic Algorithm",
      "description": "Very Long Message: Detected MD5 hash algorithm which is considered insecure. MD5 is not\ncollision resistant and is therefore not suitable as a cryptographic\nsignature. Use SHA256 or SHA3 instead.\n Detected MD5 hash algorithm which is considered insecure. MD5 is not\ncollision resistant and is therefore not suitable as a cryptographic\nsignature. Use SHA256 or SHA3 instead.\n Detected MD5 hash algorithm which is considered insecure. MD5 is not\ncollision resistant and is therefore not suitable as a cryptographic\nsignature. Use SHA256 or SHA3 instead.\n",
      "severity": "Low",
      "scanner": {
        "id": "semgrep",
        "name": "semgrep"
      },
      "location": {
        "file": "app/app.py",
        "start_line": 141
      },
      "identifiers": [
        {
          "type": "semgrep_id",
          "name": "bandit.B303-1",
          "value": "bandit.B303-1"
        },
        {
          "type": "cwe",
          "name": "CWE-327",
          "value": "327",
          "url": "https://cwe.mitre.org/data/definitions/327.html"
        },
        {
          "type": "owasp",
          "name": "A3 - Sensitive Data Exposure",
          "value": "A3"
        }
      ]
    },
    {
      "id": "7f6edd7a5e2f3b7b808554a90a8996993da49a4f3237fcafed49e468a4fb423f",
      "category": "sast",
      "name": "Inadequate Encryption Strength",
      "description": "An insecure SSL version was detected. TLS versions 1.0, 1.1, and all SSL versions\nare considered weak encryption and are deprecated.\nUse 'ssl.PROTOCOL_TLSv1_2' or higher.\n",
      "severity": "Critical",
      "scanner": {
        "id": "semgrep",
        "name": "semgrep"
      },
      "location": {
        "file": "tests/e2e_zap.py",
        "start_line": 17,
        "end_line": 18
      },
      "identifiers": [
        {
          "type": "semgrep_id",
          "name": "bandit.B502.B503",
          "value": "bandit.B502.B503"
        },
        {
          "type": "cwe",
          "name": "CWE-326",
          "value": "326",
          "url": "https://cwe.mitre.org/data/definitions/326.html"
        },
        {
          "type": "owasp",
          "name": "A3 - Sensitive Data Exposure",
          "value": "A3"
        }
      ]
    },
    {
      "id": "b1484319b6312139312be08d1c5fe1afc3e49b18e46452139f22c85b575f5df2",
      "category": "sast",
      "name": "Improper Certificate Validation",
      "description": "Certificate verification has been explicitly disabled. This\npermits insecure connections to insecure servers. Re-enable\ncertification validation.\n",
      "severity": "Critical",
      "scanner": {
        "id": "semgrep",
        "name": "semgrep"
      },
      "location": {
        "file": "tests/e2e_zap.py",
        "start_line": 17,
        "end_line": 18
      },
      "identifiers": [
        {
          "type": "semgrep_id",
          "name": "bandit.B323",
          "value": "bandit.B323",
          "url": "https://foo.com/bar/bandit.B323"
        },
        {
          "type": "cwe",
          "name": "CWE-295",
          "value": "295",
          "url": "https://cwe.mitre.org/data/definitions/295.html"
        },
        {
          "type": "owasp",
          "name": "A3 - Sensitive Data Exposure",
          "value": "A3"
        }
      ]
    },
    {
      "id": "48944dee710fda01dc380c617896031f10b23cc4e6e7b89f644c69ef9dcdbbf3",
      "category": "sast",
      "name": "Improper Certificate Validation",
      "description": "Certificate verification has been explicitly disabled. This\npermits insecure connections to insecure servers. Re-enable\ncertification validation.\n",
      "severity": "Critical",
      "scanner": {
        "id": "semgrep",
        "name": "semgrep"
      },
      "location": {
        "file": "tests/e2e_zap.py",
        "start_line": 28,
        "end_line": 29
      },
      "identifiers": [
        {
          "type": "semgrep_id",
          "name": "bandit.B323",
          "value": "bandit.B323",
          "url": "https://foo.com/bar/bandit.B323"
        },
        {
          "type": "cwe",
          "name": "CWE-295",
          "value": "295",
          "url": "https://cwe.mitre.org/data/definitions/295.html"
        },
        {
          "type": "owasp",
          "name": "A3 - Sensitive Data Exposure",
          "value": "A3"
        }
      ]
    },
    {
      "id": "8293cda54eeb9fdde47382959785c88436c500d997d5d1c3e467af2a88911975",
      "category": "sast",
      "name": "Use of a Broken or Risky Cryptographic Algorithm",
      "description": "Detected MD5 hash algorithm which is considered insecure. MD5 is not\ncollision resistant and is therefore not suitable as a cryptographic\nsignature. Use SHA256 or SHA3 instead.\n",
      "severity": "Low",
      "scanner": {
        "id": "semgrep",
        "name": "semgrep"
      },
      "location": {
        "file": "app/app.py",
        "start_line": 141,
        "end_line": 141
      },
      "identifiers": [
        {
          "type": "semgrep_id",
          "name": "bandit.B303-1",
          "value": "bandit.B303-1"
        },
        {
          "type": "cwe",
          "name": "CWE-327",
          "value": "327",
          "url": "https://cwe.mitre.org/data/definitions/327.html"
        },
        {
          "type": "owasp",
          "name": "A3 - Sensitive Data Exposure",
          "value": "A3"
        }
      ]
    },
    {
      "id": "b1484319b6312139312be08d1c5fe1afc3e49b18e46452139f22c85b575f5df2",
      "category": "sast",
      "name": "Improper Certificate Validation",
      "description": "Certificate verification has been explicitly disabled. This\npermits insecure connections to insecure servers. Re-enable\ncertification validation.\n",
      "severity": "Critical",
      "scanner": {
        "id": "semgrep",
        "name": "semgrep"
      },
      "location": {
        "file": "tests/e2e_zap.py",
        "start_line": 17,
        "end_line": 18
      },
      "identifiers": [
        {
          "type": "semgrep_id",
          "name": "bandit.B323",
          "value": "bandit.B323",
          "url": "https://foo.com/bar/bandit.B323"
        },
        {
          "type": "cwe",
          "name": "CWE-295",
          "value": "295",
          "url": "https://cwe.mitre.org/data/definitions/295.html"
        },
        {
          "type": "owasp",
          "name": "A3 - Sensitive Data Exposure",
          "value": "A3"
        }
      ]
    },
    {
      "id": "48944dee710fda01dc380c617896031f10b23cc4e6e7b89f644c69ef9dcdbbf3",
      "category": "sast",
      "name": "Improper Certificate Validation",
      "description": "Certificate verification has been explicitly disabled. This\npermits insecure connections to insecure servers. Re-enable\ncertification validation.\n",
      "severity": "Critical",
      "scanner": {
        "id": "semgrep",
        "name": "semgrep"
      },
      "location": {
        "file": "tests/e2e_zap.py",
        "start_line": 28,
        "end_line": 29
      },
      "identifiers": [
        {
          "type": "semgrep_id",
          "name": "bandit.B323",
          "value": "bandit.B323",
          "url": "https://foo.com/bar/bandit.B323"
        },
        {
          "type": "cwe",
          "name": "CWE-295",
          "value": "295",
          "url": "https://cwe.mitre.org/data/definitions/295.html"
        },
        {
          "type": "owasp",
          "name": "A3 - Sensitive Data Exposure",
          "value": "A3"
        }
      ]
    },
    {
      "id": "48944dee710fda01dc380c617896031f10b23cc4e6e7b89f644c69ef9dcdbbf3",
      "category": "sast",
      "name": "Improper Certificate Validation",
      "description": "Certificate verification has been explicitly disabled. This\npermits insecure connections to insecure servers. Re-enable\ncertification validation.\n",
      "severity": "Critical",
      "scanner": {
        "id": "semgrep",
        "name": "semgrep"
      },
      "location": {
        "file": "tests/e2e_zap.py",
        "start_line": 28,
        "end_line": 29
      },
      "identifiers": [
        {
          "type": "semgrep_id",
          "name": "bandit.B323",
          "value": "bandit.B323",
          "url": "https://foo.com/bar/bandit.B323"
        },
        {
          "type": "cwe",
          "name": "CWE-295",
          "value": "295",
          "url": "https://cwe.mitre.org/data/definitions/295.html"
        },
        {
          "type": "owasp",
          "name": "A3 - Sensitive Data Exposure",
          "value": "A3"
        }
      ]
    }
  ],
  "scan": {
    "scanner": {
      "id": "",
      "name": "",
      "vendor": {
        "name": ""
      },
      "version": ""
    },
    "type": "",
    "primary_identifiers": [
      {
        "type": "semgrep_id",
        "name": "bandit.B303-1",
        "value": "bandit.B303-1"
      },
      {
        "type": "semgrep_id",
        "name": "bandit.B323",
        "value": "bandit.B323",
        "url": "https://foo.com/bar/bandit.B323"
      },
      {
        "type": "semgrep_id",
        "name": "bandit.B502.B503",
        "value": "bandit.B502.B503"
      },
      {
        "type": "semgrep_id",
        "name": "last-duplicate-rule",
        "value": "duplicate-id",
        "url": "https://semgrep.dev/r/last"
      }
    ]
  }
}
